<svg width="164" height="76" viewBox="0 0 164 76" fill="none" xmlns="http://www.w3.org/2000/svg">
<path d="M31.2527 38.0489C35.5087 26.7916 35.562 22.9022 30.9285 21.0342C43.7322 12.6128 54.2668 15.8783 58.3186 23.0966C59.9586 26.0184 60.9118 33.2367 54.2668 39.5957C58.882 39.0511 60.8195 40.9706 61.7221 44.2361C62.9573 48.7046 59.9557 57.9701 50.0693 60.3762C46.1001 61.3422 38.5459 56.9541 41.3011 49.0483C44.0563 41.1425 51.1875 27.5651 45.677 24.1278C48.1084 32.0337 40.8146 34.9552 36.2769 42.5175C31.7391 50.0796 32.4266 54.5841 35.7907 62.9694C28.6594 57.126 27.1416 51.6205 31.2527 38.0489Z" fill="url(#paint0_linear)"/>
<path d="M35.7907 62.9689C28.6594 57.1255 27.1416 51.62 31.2527 38.0484C32.2494 34.7581 33.4839 31.9462 33.538 29.6118C33.6706 23.8876 30.9285 21.0337 30.9285 21.0337C33.7645 21.5393 36.4553 23.7684 37.1036 26.6901C37.7519 29.6118 35.7588 35.0905 32.5656 41.2986C26.731 52.6418 35.7907 62.9689 35.7907 62.9689Z" fill="#36A141"/>
<path d="M41.3161 49.0478C44.0713 41.142 51.2024 27.5647 45.692 24.1273C50.0463 26.5345 48.4487 33.5647 42.29 49.0478C40.9707 52.3646 41.9981 59.5164 50.2319 59.5164C55.9045 59.5164 62.225 52.1262 61.7371 44.2356C63.1978 50.5794 57.3631 59.5164 50.2319 60.5476C45.6935 61.0632 38.5604 56.9536 41.3161 49.0478Z" fill="#36A141"/>
<path d="M76.8047 49.418C76.8047 49.5703 76.7754 49.7578 76.7168 49.9805C76.6699 50.1914 76.5469 50.3965 76.3477 50.5957C76.1602 50.7832 75.8848 50.9414 75.5215 51.0703C75.1582 51.2109 74.666 51.2812 74.0449 51.2812C73.4238 51.2812 72.9375 51.2051 72.5859 51.0527C72.2344 50.9121 71.9707 50.7422 71.7949 50.543C71.6191 50.3438 71.5078 50.1387 71.4609 49.9277C71.4258 49.7168 71.4082 49.5469 71.4082 49.418V35.8477C71.4082 35.5078 71.3262 35.2148 71.1621 34.9688C71.0098 34.7109 70.7461 34.582 70.3711 34.582C70.1719 34.582 70.002 34.6172 69.8613 34.6875C69.7207 34.7578 69.5684 34.8574 69.4043 34.9863L69.0352 34.5469C69.3047 34.3242 69.6035 34.1074 69.9316 33.8965C70.2715 33.6738 70.6348 33.4805 71.0215 33.3164C71.4082 33.1523 71.8242 33.0176 72.2695 32.9121C72.7148 32.8066 73.1836 32.7539 73.6758 32.7539C74.4375 32.7539 75.0293 32.8594 75.4512 33.0703C75.873 33.2695 76.1836 33.5215 76.3828 33.8262C76.582 34.1191 76.6992 34.4355 76.7344 34.7754C76.7812 35.1152 76.8047 35.4141 76.8047 35.6719V49.418ZM70.8633 28.7461C70.8633 28.418 70.9336 28.1074 71.0742 27.8145C71.2266 27.5098 71.4316 27.2461 71.6895 27.0234C71.959 26.8008 72.2637 26.625 72.6035 26.4961C72.9551 26.3672 73.3359 26.3027 73.7461 26.3027C74.1445 26.3027 74.5137 26.3672 74.8535 26.4961C75.2051 26.625 75.5098 26.8008 75.7676 27.0234C76.0254 27.2461 76.2246 27.5098 76.3652 27.8145C76.5176 28.1074 76.5938 28.418 76.5938 28.7461C76.5938 29.0859 76.5176 29.4023 76.3652 29.6953C76.2246 29.9883 76.0254 30.2461 75.7676 30.4688C75.5098 30.6797 75.2051 30.8496 74.8535 30.9785C74.5137 31.1074 74.1445 31.1719 73.7461 31.1719C73.3359 31.1719 72.9551 31.1074 72.6035 30.9785C72.2637 30.8496 71.959 30.6797 71.6895 30.4688C71.4316 30.2461 71.2266 29.9883 71.0742 29.6953C70.9336 29.4023 70.8633 29.0859 70.8633 28.7461ZM86.8945 34.1602C86.625 34.1602 86.3672 34.1953 86.1211 34.2656C85.8867 34.3359 85.6758 34.4531 85.4883 34.6172C85.3008 34.7695 85.1543 34.9688 85.0488 35.2148C84.9434 35.4492 84.8906 35.7305 84.8906 36.0586C84.8906 36.5156 85.0547 36.9727 85.3828 37.4297C85.7227 37.875 86.1387 38.3438 86.6309 38.8359C87.1348 39.3164 87.6738 39.8203 88.248 40.3477C88.834 40.8633 89.373 41.4141 89.8652 42C90.3691 42.5742 90.7852 43.1895 91.1133 43.8457C91.4531 44.502 91.623 45.2051 91.623 45.9551C91.623 46.7988 91.4766 47.5488 91.1836 48.2051C90.9023 48.8613 90.4922 49.418 89.9531 49.875C89.4258 50.332 88.7812 50.6836 88.0195 50.9297C87.2695 51.1641 86.4316 51.2812 85.5059 51.2812C84.6973 51.2812 83.9648 51.1699 83.3086 50.9473C82.6523 50.7129 82.0664 50.4316 81.5508 50.1035C81.0469 49.7637 80.6133 49.4062 80.25 49.0312C79.8867 48.6562 79.6055 48.3164 79.4062 48.0117L80.0215 47.5723C80.1738 47.748 80.3672 47.9414 80.6016 48.1523C80.8359 48.3516 81.0938 48.5391 81.375 48.7148C81.668 48.8906 81.9785 49.0371 82.3066 49.1543C82.6348 49.2598 82.9688 49.3125 83.3086 49.3125C84.1523 49.3125 84.8438 49.1133 85.3828 48.7148C85.9219 48.3047 86.1914 47.7012 86.1914 46.9043C86.1914 46.459 86.0449 46.002 85.752 45.5332C85.459 45.0527 85.0898 44.5605 84.6445 44.0566C84.1992 43.5527 83.7188 43.0312 83.2031 42.4922C82.6875 41.9531 82.207 41.3965 81.7617 40.8223C81.3164 40.248 80.9473 39.6562 80.6543 39.0469C80.3613 38.4375 80.2148 37.8047 80.2148 37.1484C80.2148 36.4102 80.3613 35.7656 80.6543 35.2148C80.959 34.6641 81.3574 34.207 81.8496 33.8438C82.3535 33.4805 82.9219 33.2109 83.5547 33.0352C84.1992 32.8477 84.8613 32.7539 85.541 32.7539C86.3262 32.7539 87.041 32.8242 87.6855 32.9648C88.3301 33.1055 88.8809 33.3223 89.3379 33.6152C89.8066 33.8965 90.1641 34.2539 90.4102 34.6875C90.668 35.1211 90.7969 35.625 90.7969 36.1992C90.7969 36.6445 90.6504 37.0312 90.3574 37.3594C90.0645 37.6875 89.6543 37.8516 89.127 37.8516C88.623 37.8516 88.2363 37.7461 87.9668 37.5352C87.709 37.3125 87.5801 37.0137 87.5801 36.6387C87.5801 36.3926 87.6387 36.1992 87.7559 36.0586C87.8848 35.918 88.0254 35.8066 88.1777 35.7246C88.3301 35.6309 88.4648 35.5547 88.582 35.4961C88.7109 35.4258 88.7754 35.3379 88.7754 35.2324C88.7754 34.9043 88.5996 34.6465 88.248 34.459C87.8965 34.2598 87.4453 34.1602 86.8945 34.1602ZM100.5 49.418C100.5 49.5703 100.471 49.7578 100.412 49.9805C100.365 50.1914 100.242 50.3965 100.043 50.5957C99.8555 50.7832 99.5801 50.9414 99.2168 51.0703C98.8535 51.2109 98.3613 51.2812 97.7402 51.2812C97.1191 51.2812 96.6328 51.2051 96.2812 51.0527C95.9297 50.9121 95.666 50.7422 95.4902 50.543C95.3145 50.3438 95.2031 50.1387 95.1562 49.9277C95.1211 49.7168 95.1035 49.5469 95.1035 49.418V35.8477C95.1035 35.5078 95.0215 35.2148 94.8574 34.9688C94.7051 34.7109 94.4414 34.582 94.0664 34.582C93.8672 34.582 93.6973 34.6172 93.5566 34.6875C93.416 34.7578 93.2637 34.8574 93.0996 34.9863L92.7305 34.5469C93 34.3242 93.2988 34.1074 93.627 33.8965C93.9668 33.6738 94.3301 33.4805 94.7168 33.3164C95.1035 33.1523 95.5195 33.0176 95.9648 32.9121C96.4102 32.8066 96.8789 32.7539 97.3711 32.7539C98.1328 32.7539 98.7246 32.8594 99.1465 33.0703C99.5684 33.2695 99.8789 33.5215 100.078 33.8262C100.277 34.1191 100.395 34.4355 100.43 34.7754C100.477 35.1152 100.5 35.4141 100.5 35.6719V49.418ZM94.5586 28.7461C94.5586 28.418 94.6289 28.1074 94.7695 27.8145C94.9219 27.5098 95.127 27.2461 95.3848 27.0234C95.6543 26.8008 95.959 26.625 96.2988 26.4961C96.6504 26.3672 97.0312 26.3027 97.4414 26.3027C97.8398 26.3027 98.209 26.3672 98.5488 26.4961C98.9004 26.625 99.2051 26.8008 99.4629 27.0234C99.7207 27.2461 99.9199 27.5098 100.061 27.8145C100.213 28.1074 100.289 28.418 100.289 28.7461C100.289 29.0859 100.213 29.4023 100.061 29.6953C99.9199 29.9883 99.7207 30.2461 99.4629 30.4688C99.2051 30.6797 98.9004 30.8496 98.5488 30.9785C98.209 31.1074 97.8398 31.1719 97.4414 31.1719C97.0312 31.1719 96.6504 31.1074 96.2988 30.9785C95.959 30.8496 95.6543 30.6797 95.3848 30.4688C95.127 30.2461 94.9219 29.9883 94.7695 29.6953C94.6289 29.4023 94.5586 29.0859 94.5586 28.7461ZM110.379 37.5352C110.789 36.9844 111.229 36.4277 111.697 35.8652C112.166 35.291 112.67 34.7754 113.209 34.3184C113.748 33.8613 114.334 33.4863 114.967 33.1934C115.6 32.9004 116.291 32.7539 117.041 32.7539C117.709 32.7539 118.266 32.8887 118.711 33.1582C119.156 33.416 119.514 33.7324 119.783 34.1074C120.064 34.4707 120.258 34.8516 120.363 35.25C120.48 35.6484 120.539 35.9883 120.539 36.2695C120.539 36.7852 120.469 37.3242 120.328 37.8867C120.199 38.4375 119.971 38.9883 119.643 39.5391C119.326 40.0781 118.898 40.6055 118.359 41.1211C117.82 41.625 117.141 42.0879 116.32 42.5098C117.422 44.8418 118.494 46.8516 119.537 48.5391C120.58 50.2148 121.582 51.5918 122.543 52.6699C123.516 53.7598 124.447 54.5625 125.338 55.0781C126.229 55.5938 127.078 55.8516 127.887 55.8516C128.027 55.8516 128.168 55.834 128.309 55.7988C128.449 55.7637 128.578 55.7227 128.695 55.6758C128.824 55.6289 128.959 55.5703 129.1 55.5L129.434 56.1152C129.117 56.291 128.795 56.4551 128.467 56.6074C128.139 56.7715 127.764 56.9121 127.342 57.0293C126.92 57.1465 126.434 57.2402 125.883 57.3105C125.332 57.3809 124.676 57.416 123.914 57.416C123.223 57.416 122.537 57.334 121.857 57.1699C121.189 57.0059 120.516 56.7129 119.836 56.291C119.156 55.8691 118.465 55.3066 117.762 54.6035C117.07 53.9004 116.355 53.0098 115.617 51.9316C114.891 50.8535 114.141 49.5703 113.367 48.082C112.594 46.5938 111.791 44.8535 110.959 42.8613C112.084 42.0293 112.969 41.2617 113.613 40.5586C114.258 39.8438 114.744 39.1992 115.072 38.625C115.4 38.0508 115.605 37.541 115.688 37.0957C115.77 36.6504 115.811 36.2695 115.811 35.9531C115.811 35.9062 115.805 35.8301 115.793 35.7246C115.781 35.6074 115.74 35.4961 115.67 35.3906C115.611 35.2852 115.518 35.1914 115.389 35.1094C115.271 35.0273 115.102 34.9863 114.879 34.9863C114.445 34.9863 114.006 35.1738 113.561 35.5488C113.115 35.9121 112.688 36.3691 112.277 36.9199C111.879 37.459 111.516 38.0449 111.188 38.6777C110.859 39.2988 110.59 39.8672 110.379 40.3828V49.4531C110.379 49.6055 110.35 49.7871 110.291 49.998C110.244 50.209 110.121 50.4082 109.922 50.5957C109.734 50.7832 109.453 50.9414 109.078 51.0703C108.715 51.2109 108.223 51.2812 107.602 51.2812C106.98 51.2812 106.494 51.2051 106.143 51.0527C105.791 50.9121 105.527 50.7422 105.352 50.543C105.188 50.3438 105.082 50.1387 105.035 49.9277C105 49.7168 104.982 49.5469 104.982 49.418V26.7422C104.982 26.4023 104.9 26.1094 104.736 25.8633C104.584 25.6055 104.32 25.4766 103.945 25.4766C103.746 25.4766 103.57 25.5117 103.418 25.582C103.277 25.6406 103.125 25.7344 102.961 25.8633L102.609 25.4414C102.879 25.2188 103.178 25.002 103.506 24.791C103.834 24.5684 104.191 24.375 104.578 24.2109C104.977 24.0469 105.398 23.9121 105.844 23.8066C106.289 23.7012 106.758 23.6484 107.25 23.6484C108.012 23.6484 108.604 23.7539 109.025 23.9648C109.447 24.1641 109.758 24.416 109.957 24.7207C110.156 25.0137 110.273 25.3301 110.309 25.6699C110.355 25.998 110.379 26.291 110.379 26.5488V37.5352ZM139.436 47.9414C139.436 48.0469 139.441 48.1641 139.453 48.293C139.465 48.4102 139.494 48.5273 139.541 48.6445C139.588 48.75 139.658 48.8379 139.752 48.9082C139.846 48.9785 139.98 49.0137 140.156 49.0137C140.379 49.0137 140.578 48.9375 140.754 48.7852C140.93 48.6211 141.094 48.457 141.246 48.293L141.668 48.6621C141.492 48.9082 141.27 49.1836 141 49.4883C140.742 49.7812 140.426 50.0625 140.051 50.332C139.676 50.6016 139.248 50.8242 138.768 51C138.287 51.1875 137.742 51.2812 137.133 51.2812C136.617 51.2812 136.166 51.2109 135.779 51.0703C135.404 50.9414 135.082 50.7656 134.812 50.543C134.555 50.3086 134.361 50.0391 134.232 49.7344C134.104 49.418 134.039 49.084 134.039 48.7324V47.9414C133.453 48.5742 132.838 49.1309 132.193 49.6113C131.912 49.8223 131.613 50.0273 131.297 50.2266C130.98 50.4258 130.652 50.6074 130.312 50.7715C129.973 50.9238 129.621 51.0469 129.258 51.1406C128.895 51.2344 128.531 51.2812 128.168 51.2812C127.465 51.2812 126.861 51.1582 126.357 50.9121C125.865 50.6543 125.467 50.3203 125.162 49.9102C124.857 49.5 124.635 49.0371 124.494 48.5215C124.354 48.0059 124.283 47.4902 124.283 46.9746V36.0938C124.283 35.9883 124.277 35.877 124.266 35.7598C124.254 35.6309 124.225 35.5137 124.178 35.4082C124.131 35.291 124.061 35.1973 123.967 35.127C123.873 35.0566 123.738 35.0215 123.562 35.0215C123.352 35.0215 123.152 35.1035 122.965 35.2676C122.789 35.4199 122.631 35.5781 122.49 35.7422L122.051 35.373C122.227 35.127 122.443 34.8574 122.701 34.5645C122.971 34.2598 123.293 33.9727 123.668 33.7031C124.043 33.4336 124.471 33.2109 124.951 33.0352C125.443 32.8477 125.988 32.7539 126.586 32.7539C127.102 32.7539 127.553 32.8242 127.939 32.9648C128.326 33.0938 128.648 33.2754 128.906 33.5098C129.164 33.7324 129.357 34.002 129.486 34.3184C129.615 34.623 129.68 34.9512 129.68 35.3027V47.0449C129.68 47.209 129.703 47.3789 129.75 47.5547C129.809 47.7188 129.885 47.8711 129.979 48.0117C130.084 48.1523 130.213 48.2695 130.365 48.3633C130.518 48.4453 130.699 48.4863 130.91 48.4863C131.25 48.4863 131.59 48.3984 131.93 48.2227C132.27 48.0469 132.58 47.8418 132.861 47.6074C133.143 47.3613 133.383 47.1211 133.582 46.8867C133.793 46.6523 133.945 46.4766 134.039 46.3594V36.0938C134.039 35.9883 134.033 35.877 134.021 35.7598C134.01 35.6309 133.98 35.5137 133.934 35.4082C133.887 35.291 133.816 35.1973 133.723 35.127C133.629 35.0566 133.494 35.0215 133.318 35.0215C133.107 35.0215 132.908 35.1035 132.721 35.2676C132.545 35.4199 132.387 35.5781 132.246 35.7422L131.807 35.373C131.982 35.127 132.199 34.8574 132.457 34.5645C132.727 34.2598 133.049 33.9727 133.424 33.7031C133.799 33.4336 134.227 33.2109 134.707 33.0352C135.199 32.8477 135.744 32.7539 136.342 32.7539C136.857 32.7539 137.309 32.8242 137.695 32.9648C138.082 33.0938 138.404 33.2754 138.662 33.5098C138.92 33.7324 139.113 34.002 139.242 34.3184C139.371 34.623 139.436 34.9512 139.436 35.3027V47.9414Z" fill="#57BC36"/>
<defs>
<linearGradient id="paint0_linear" x1="45.4765" y1="16.0349" x2="45.4765" y2="62.9694" gradientUnits="userSpaceOnUse">
<stop stop-color="#76C72D"/>
<stop offset="0.467996" stop-color="#57BC36"/>
<stop offset="1" stop-color="#34B040"/>
</linearGradient>
</defs>
</svg>
